{
  "$schema": "https://json.schemastore.org/nest-cli",
  "collection": "@nestjs/schematics",
  "sourceRoot": "src",
  "compilerOptions": {
    "assets": [
      {
        "include": "email-templates",
        "outDir": "dist",
        "watchAssets": true
      }
    ],
    "watchAssets": true,
    "deleteOutDir": true
  }
}
